{
	"info": {
		"_postman_id": "e363475d-6b1a-40db-abd6-00a64a7bda3c",
		"name": "Applaudo Final Project",
		"schema": "https://schema.getpostman.com/json/collection/v2.1.0/collection.json",
		"_exporter_id": "25448448"
	},
	"item": [
		{
			"name": "Movies",
			"item": [
				{
					"name": "Get Popular Movies",
					"request": {
						"method": "GET",
						"header": []
					},
					"response": [
						{
							"name": "Successful response",
							"originalRequest": {
								"method": "GET",
								"header": [],
								"url": {
									"raw": "{{baseUrl}}/movie/popular?api_key={{apiKey}}&page=1",
									"host": [
										"{{baseUrl}}"
									],
									"path": [
										"movie",
										"popular"
									],
									"query": [
										{
											"key": "api_key",
											"value": "{{apiKey}}"
										},
										{
											"key": "page",
											"value": "1"
										}
									]
								}
							},
							"status": "OK",
							"code": 200,
							"_postman_previewlanguage": "json",
							"header": [
								{
									"key": "Content-Type",
									"value": "application/json;charset=utf-8"
								},
								{
									"key": "Transfer-Encoding",
									"value": "chunked"
								},
								{
									"key": "Connection",
									"value": "keep-alive"
								},
								{
									"key": "Date",
									"value": "Wed, 01 Feb 2023 23:16:22 GMT"
								},
								{
									"key": "Server",
									"value": "openresty"
								},
								{
									"key": "Cache-Control",
									"value": "public, max-age=21600"
								},
								{
									"key": "Content-Encoding",
									"value": "br"
								},
								{
									"key": "Vary",
									"value": "Accept-Encoding,Accept-Encoding"
								},
								{
									"key": "Vary",
									"value": "Origin"
								},
								{
									"key": "X-Cache",
									"value": "Miss from cloudfront"
								},
								{
									"key": "Via",
									"value": "1.1 3634ddf502e9036a10712990f5db1922.cloudfront.net (CloudFront)"
								},
								{
									"key": "X-Amz-Cf-Pop",
									"value": "BOS50-P1"
								},
								{
									"key": "Alt-Svc",
									"value": "h3=\":443\"; ma=86400"
								},
								{
									"key": "X-Amz-Cf-Id",
									"value": "_GE5QinWVZj9NwzONxH6SMY86MTJAOi4UGBV8-dsYT9n1JJoxPo80g=="
								}
							],
							"cookie": [],
							"body": "{\n    \"page\": 1,\n    \"results\": [\n        {\n            \"adult\": false,\n            \"backdrop_path\": \"/faXT8V80JRhnArTAeYXz0Eutpv9.jpg\",\n            \"genre_ids\": [\n                16,\n                28,\n                12,\n                35,\n                10751,\n                14\n            ],\n            \"id\": 315162,\n            \"original_language\": \"en\",\n            \"original_title\": \"Puss in Boots: The Last Wish\",\n            \"overview\": \"Puss in Boots discovers that his passion for adventure has taken its toll: He has burned through eight of his nine lives, leaving him with only one life left. Puss sets out on an epic journey to find the mythical Last Wish and restore his nine lives.\",\n            \"popularity\": 5032.178,\n            \"poster_path\": \"/kuf6dutpsT0vSVehic3EZIqkOBt.jpg\",\n            \"release_date\": \"2022-12-07\",\n            \"title\": \"Puss in Boots: The Last Wish\",\n            \"video\": false,\n            \"vote_average\": 8.6,\n            \"vote_count\": 3032\n        },\n        {\n            \"adult\": false,\n            \"backdrop_path\": \"/q2fY4kMXKoGv4CQf310MCxpXlRI.jpg\",\n            \"genre_ids\": [\n                878,\n                27,\n                35\n            ],\n            \"id\": 536554,\n            \"original_language\": \"en\",\n            \"original_title\": \"M3GAN\",\n            \"overview\": \"A brilliant toy company roboticist uses artificial intelligence to develop M3GAN, a life-like doll programmed to emotionally bond with her newly orphaned niece. But when the doll's programming works too well, she becomes overprotective of her new friend with terrifying results.\",\n            \"popularity\": 3734.476,\n            \"poster_path\": \"/d9nBoowhjiiYc4FBNtQkPY7c11H.jpg\",\n            \"release_date\": \"2022-12-28\",\n            \"title\": \"M3GAN\",\n            \"video\": false,\n            \"vote_average\": 7.5,\n            \"vote_count\": 1110\n        },\n        {\n            \"adult\": false,\n            \"backdrop_path\": \"/qHdPNd1cUaSNYLLNgt1Pv3LVd0T.jpg\",\n            \"genre_ids\": [\n                878,\n                28,\n                12\n            ],\n            \"id\": 843794,\n            \"original_language\": \"ko\",\n            \"original_title\": \"정이\",\n            \"overview\": \"On an uninhabitable 22nd-century Earth, the outcome of a civil war hinges on cloning the brain of an elite soldier to create a robot mercenary.\",\n            \"popularity\": 2435.432,\n            \"poster_path\": \"/z2nfRxZCGFgAnVhb9pZO87TyTX5.jpg\",\n            \"release_date\": \"2023-01-20\",\n            \"title\": \"JUNG_E\",\n            \"video\": false,\n            \"vote_average\": 6.2,\n            \"vote_count\": 185\n        },\n        {\n            \"adult\": false,\n            \"backdrop_path\": \"/evaFLqtswezLosllRZtJNMiO1UR.jpg\",\n            \"genre_ids\": [\n                878,\n                12,\n                28\n            ],\n            \"id\": 76600,\n            \"original_language\": \"en\",\n            \"original_title\": \"Avatar: The Way of Water\",\n            \"overview\": \"Set more than a decade after the events of the first film, learn the story of the Sully family (Jake, Neytiri, and their kids), the trouble that follows them, the lengths they go to keep each other safe, the battles they fight to stay alive, and the tragedies they endure.\",\n            \"popularity\": 2099.293,\n            \"poster_path\": \"/t6HIqrRAclMCA60NsSmeqe9RmNV.jpg\",\n            \"release_date\": \"2022-12-14\",\n            \"title\": \"Avatar: The Way of Water\",\n            \"video\": false,\n            \"vote_average\": 7.7,\n            \"vote_count\": 4894\n        },\n        {\n            \"adult\": false,\n            \"backdrop_path\": \"/xDMIl84Qo5Tsu62c9DGWhmPI67A.jpg\",\n            \"genre_ids\": [\n                28,\n                12,\n                878\n            ],\n            \"id\": 505642,\n            \"original_language\": \"en\",\n            \"original_title\": \"Black Panther: Wakanda Forever\",\n            \"overview\": \"Queen Ramonda, Shuri, M’Baku, Okoye and the Dora Milaje fight to protect their nation from intervening world powers in the wake of King T’Challa’s death. As the Wakandans strive to embrace their next chapter, the heroes must band together with the help of War Dog Nakia and Everett Ross and forge a new path for the kingdom of Wakanda.\",\n            \"popularity\": 1993.631,\n            \"poster_path\": \"/sv1xJUazXeYqALzczSZ3O6nkH75.jpg\",\n            \"release_date\": \"2022-11-09\",\n            \"title\": \"Black Panther: Wakanda Forever\",\n            \"video\": false,\n            \"vote_average\": 7.5,\n            \"vote_count\": 1893\n        },\n        {\n            \"adult\": false,\n            \"backdrop_path\": \"/96SADhPnkXnVN3KaRKsDeBovLcm.jpg\",\n            \"genre_ids\": [\n                28,\n                14,\n                10770\n            ],\n            \"id\": 877703,\n            \"original_language\": \"en\",\n            \"original_title\": \"Teen Wolf: The Movie\",\n            \"overview\": \"The wolves are howling once again, as a terrifying ancient evil emerges in Beacon Hills. Scott McCall, no longer a teenager yet still an Alpha, must gather new allies and reunite trusted friends to fight back against this powerful and deadly enemy.\",\n            \"popularity\": 1991.263,\n            \"poster_path\": \"/wAkpPm3wcHRqZl8XjUI3Y2chYq2.jpg\",\n            \"release_date\": \"2023-01-18\",\n            \"title\": \"Teen Wolf: The Movie\",\n            \"video\": false,\n            \"vote_average\": 8.4,\n            \"vote_count\": 232\n        },\n        {\n            \"adult\": false,\n            \"backdrop_path\": \"/5pMy5LF2JAleBNBtuzizfCMWM7k.jpg\",\n            \"genre_ids\": [\n                10752,\n                36,\n                18\n            ],\n            \"id\": 653851,\n            \"original_language\": \"en\",\n            \"original_title\": \"Devotion\",\n            \"overview\": \"The harrowing true story of two elite US Navy fighter pilots during the Korean War. Their heroic sacrifices would ultimately make them the Navy's most celebrated wingmen.\",\n            \"popularity\": 1573.715,\n            \"poster_path\": \"/26yQPXymbWeCLKwcmyL8dRjAzth.jpg\",\n            \"release_date\": \"2022-11-23\",\n            \"title\": \"Devotion\",\n            \"video\": false,\n            \"vote_average\": 7.6,\n            \"vote_count\": 195\n        },\n        {\n            \"adult\": false,\n            \"backdrop_path\": \"/Aqldsq65Nj1KAkQD2MzkZsAk5N5.jpg\",\n            \"genre_ids\": [\n                28,\n                53,\n                18\n            ],\n            \"id\": 846433,\n            \"original_language\": \"es\",\n            \"original_title\": \"The Enforcer\",\n            \"overview\": \"A noir thriller set in Miami, the film follows an enforcer who discovers his femme fatale boss has branched out into cyber sex trafficking, putting a young runaway he’s befriended at risk. He sacrifices everything to save the young girl from the deadly organization he’s spent his life building.\",\n            \"popularity\": 1317.659,\n            \"poster_path\": \"/72V1r1G8S87ELagVxjqAUdChMCt.jpg\",\n            \"release_date\": \"2022-09-22\",\n            \"title\": \"The Enforcer\",\n            \"video\": false,\n            \"vote_average\": 7.3,\n            \"vote_count\": 122\n        },\n        {\n            \"adult\": false,\n            \"backdrop_path\": \"/vLPSvAt1CnfmDCeqG3zkFh0s6S4.jpg\",\n            \"genre_ids\": [\n                10752,\n                28\n            ],\n            \"id\": 542196,\n            \"original_language\": \"en\",\n            \"original_title\": \"Wolf Hound\",\n            \"overview\": \"Inspired by the real-life German special operations unit KG 200 that shot down, repaired, and flew Allied aircraft as Trojan horses, \\\"Wolf Hound\\\" takes place in 1944 German-occupied France and follows the daring exploits of Jewish-American fighter pilot Captain David Holden. Ambushed behind enemy lines, Holden must rescue a captured B-17 Flying Fortress crew, evade a ruthless enemy stalking him at every turn, and foil a plot that could completely alter the outcome of World War II.\",\n            \"popularity\": 1151.278,\n            \"poster_path\": \"/6sMnY4fEVAfdadhANhGnNckxsmx.jpg\",\n            \"release_date\": \"2022-06-03\",\n            \"title\": \"Wolf Hound\",\n            \"video\": false,\n            \"vote_average\": 6.8,\n            \"vote_count\": 23\n        },\n        {\n            \"adult\": false,\n            \"backdrop_path\": \"/bQXAqRx2Fgc46uCVWgoPz5L5Dtr.jpg\",\n            \"genre_ids\": [\n                14,\n                28,\n                878\n            ],\n            \"id\": 436270,\n            \"original_language\": \"en\",\n            \"original_title\": \"Black Adam\",\n            \"overview\": \"Nearly 5,000 years after he was bestowed with the almighty powers of the Egyptian gods—and imprisoned just as quickly—Black Adam is freed from his earthly tomb, ready to unleash his unique form of justice on the modern world.\",\n            \"popularity\": 1143.242,\n            \"poster_path\": \"/pFlaoHTZeyNkG83vxsAJiGzfSsa.jpg\",\n            \"release_date\": \"2022-10-19\",\n            \"title\": \"Black Adam\",\n            \"video\": false,\n            \"vote_average\": 7.2,\n            \"vote_count\": 3977\n        },\n        {\n            \"adult\": false,\n            \"backdrop_path\": \"/sBOenwOZGRN5nZZGw4TxwtnfrEf.jpg\",\n            \"genre_ids\": [\n                28,\n                35,\n                80,\n                53\n            ],\n            \"id\": 899112,\n            \"original_language\": \"en\",\n            \"original_title\": \"Violent Night\",\n            \"overview\": \"When a team of mercenaries breaks into a wealthy family compound on Christmas Eve, taking everyone inside hostage, the team isn’t prepared for a surprise combatant: Santa Claus is on the grounds, and he’s about to show why this Nick is no saint.\",\n            \"popularity\": 1132.661,\n            \"poster_path\": \"/1XSYOP0JjjyMz1irihvWywro82r.jpg\",\n            \"release_date\": \"2022-11-30\",\n            \"title\": \"Violent Night\",\n            \"video\": false,\n            \"vote_average\": 7.7,\n            \"vote_count\": 1079\n        },\n        {\n            \"adult\": false,\n            \"backdrop_path\": \"/53BC9F2tpZnsGno2cLhzvGprDYS.jpg\",\n            \"genre_ids\": [\n                14,\n                28,\n                12,\n                53\n            ],\n            \"id\": 736526,\n            \"original_language\": \"no\",\n            \"original_title\": \"Troll\",\n            \"overview\": \"Deep inside the mountain of Dovre, something gigantic awakens after being trapped for a thousand years. Destroying everything in its path, the creature is fast approaching the capital of Norway. But how do you stop something you thought only existed in Norwegian folklore?\",\n            \"popularity\": 1033.084,\n            \"poster_path\": \"/9z4jRr43JdtU66P0iy8h18OyLql.jpg\",\n            \"release_date\": \"2022-12-01\",\n            \"title\": \"Troll\",\n            \"video\": false,\n            \"vote_average\": 6.7,\n            \"vote_count\": 1120\n        },\n        {\n            \"adult\": false,\n            \"backdrop_path\": \"/o0s4XsEDfDlvit5pDRKjzXR4pp2.jpg\",\n            \"genre_ids\": [\n                28,\n                12,\n                14,\n                878\n            ],\n            \"id\": 19995,\n            \"original_language\": \"en\",\n            \"original_title\": \"Avatar\",\n            \"overview\": \"In the 22nd century, a paraplegic Marine is dispatched to the moon Pandora on a unique mission, but becomes torn between following orders and protecting an alien civilization.\",\n            \"popularity\": 1001.678,\n            \"poster_path\": \"/jRXYjXNq0Cs2TcJjLkki24MLp7u.jpg\",\n            \"release_date\": \"2009-12-15\",\n            \"title\": \"Avatar\",\n            \"video\": false,\n            \"vote_average\": 7.6,\n            \"vote_count\": 28134\n        },\n        {\n            \"adult\": false,\n            \"backdrop_path\": \"/94kQGMiFbs5MUTlt7kj9dewsMDi.jpg\",\n            \"genre_ids\": [\n                27,\n                53\n            ],\n            \"id\": 676547,\n            \"original_language\": \"en\",\n            \"original_title\": \"Prey for the Devil\",\n            \"overview\": \"In response to a global rise in demonic possessions, the Catholic Church reopens exorcism schools to train priests in the Rite of Exorcism. On this spiritual battlefield, an unlikely warrior rises: a young nun, Sister Ann. Thrust onto the spiritual frontline with fellow student Father Dante, Sister Ann finds herself in a battle for the soul of a young girl and soon realizes the Devil has her right where he wants her.\",\n            \"popularity\": 974.998,\n            \"poster_path\": \"/iCvgemXf2Kpr2LvpDmt5J9NhjKM.jpg\",\n            \"release_date\": \"2022-10-23\",\n            \"title\": \"Prey for the Devil\",\n            \"video\": false,\n            \"vote_average\": 7.3,\n            \"vote_count\": 460\n        },\n        {\n            \"adult\": false,\n            \"backdrop_path\": \"/dKqa850uvbNSCaQCV4Im1XlzEtQ.jpg\",\n            \"genre_ids\": [\n                35,\n                80,\n                9648\n            ],\n            \"id\": 661374,\n            \"original_language\": \"en\",\n            \"original_title\": \"Glass Onion: A Knives Out Mystery\",\n            \"overview\": \"World-famous detective Benoit Blanc heads to Greece to peel back the layers of a mystery surrounding a tech billionaire and his eclectic crew of friends.\",\n            \"popularity\": 912.773,\n            \"poster_path\": \"/vDGr1YdrlfbU9wxTOdpf3zChmv9.jpg\",\n            \"release_date\": \"2022-11-23\",\n            \"title\": \"Glass Onion: A Knives Out Mystery\",\n            \"video\": false,\n            \"vote_average\": 7.1,\n            \"vote_count\": 3121\n        },\n        {\n            \"adult\": false,\n            \"backdrop_path\": \"/sKK5bbQm15jzbMRwCJmPBbv9trN.jpg\",\n            \"genre_ids\": [\n                12,\n                10751,\n                14\n            ],\n            \"id\": 411,\n            \"original_language\": \"en\",\n            \"original_title\": \"The Chronicles of Narnia: The Lion, the Witch and the Wardrobe\",\n            \"overview\": \"Siblings Lucy, Edmund, Susan and Peter step through a magical wardrobe and find the land of Narnia. There, they discover a charming, once peaceful kingdom that has been plunged into eternal winter by the evil White Witch, Jadis. Aided by the wise and magnificent lion, Aslan, the children lead Narnia into a spectacular, climactic battle to be free of the Witch's glacial powers forever.\",\n            \"popularity\": 870.951,\n            \"poster_path\": \"/iREd0rNCjYdf5Ar0vfaW32yrkm.jpg\",\n            \"release_date\": \"2005-12-07\",\n            \"title\": \"The Chronicles of Narnia: The Lion, the Witch and the Wardrobe\",\n            \"video\": false,\n            \"vote_average\": 7.1,\n            \"vote_count\": 9242\n        },\n        {\n            \"adult\": false,\n            \"backdrop_path\": \"/tsjXBo4LmzV0Bb9hdrz25tzX5GD.jpg\",\n            \"genre_ids\": [\n                10402\n            ],\n            \"id\": 1041513,\n            \"original_language\": \"en\",\n            \"original_title\": \"Encanto at the Hollywood Bowl\",\n            \"overview\": \"A taped performance of the Encanto Live-to-Film Concert Experience at the Hollywood Bowl. The original cast puts on a miracle of a concert as they sing the favorite songs, accompanied by a full orchestra and 50 person ensemble, and the Hollywood Bowl transforms into Casita!\",\n            \"popularity\": 858.726,\n            \"poster_path\": \"/sa3Ku5yNVjp8NloWxJoI9dQjvOi.jpg\",\n            \"release_date\": \"2022-12-28\",\n            \"title\": \"Encanto at the Hollywood Bowl\",\n            \"video\": false,\n            \"vote_average\": 7.6,\n            \"vote_count\": 71\n        },\n        {\n            \"adult\": false,\n            \"backdrop_path\": \"/nWs0auTqn2UaFGfTKtUE5tlTeBu.jpg\",\n            \"genre_ids\": [\n                10751,\n                35,\n                14\n            ],\n            \"id\": 668482,\n            \"original_language\": \"en\",\n            \"original_title\": \"Roald Dahl's Matilda the Musical\",\n            \"overview\": \"An extraordinary young girl discovers her superpower and summons the remarkable courage, against all odds, to help others change their stories, whilst also taking charge of her own destiny. Standing up for what's right, she's met with miraculous results.\",\n            \"popularity\": 836.221,\n            \"poster_path\": \"/ga8R3OiOMMgSvZ4cOj8x7prUNYZ.jpg\",\n            \"release_date\": \"2022-11-25\",\n            \"title\": \"Roald Dahl's Matilda the Musical\",\n            \"video\": false,\n            \"vote_average\": 6.9,\n            \"vote_count\": 440\n        },\n        {\n            \"adult\": false,\n            \"backdrop_path\": \"/7GmQKKAB3q3xkpxt1VFt2DrfviW.jpg\",\n            \"genre_ids\": [\n                53,\n                80\n            ],\n            \"id\": 934287,\n            \"original_language\": \"da\",\n            \"original_title\": \"Klienten\",\n            \"overview\": \"Renowned psychologist Susanne (Signe Egholm Olsen) is caught in a living nightmare when her new client (Anton Hjejle) turns out to be a wanted serial killer.\",\n            \"popularity\": 816.788,\n            \"poster_path\": \"/oUhZzMpHAMgdRgLbsvBIqhY7fKe.jpg\",\n            \"release_date\": \"2022-06-20\",\n            \"title\": \"The Last Client\",\n            \"video\": false,\n            \"vote_average\": 7.9,\n            \"vote_count\": 60\n        },\n        {\n            \"adult\": false,\n            \"backdrop_path\": \"/ofteFQqIntae7wqVAYYyXOCmkF1.jpg\",\n            \"genre_ids\": [\n                27,\n                53\n            ],\n            \"id\": 980078,\n            \"original_language\": \"en\",\n            \"original_title\": \"Winnie the Pooh: Blood and Honey\",\n            \"overview\": \"Christopher Robin is headed off to college and he has abandoned his old friends, Pooh and Piglet, which then leads to the duo embracing their inner monsters.\",\n            \"popularity\": 811.511,\n            \"poster_path\": \"/wtFwgFFk1ze789ghcadWGEVjj3N.jpg\",\n            \"release_date\": \"2023-01-27\",\n            \"title\": \"Winnie the Pooh: Blood and Honey\",\n            \"video\": false,\n            \"vote_average\": 6.9,\n            \"vote_count\": 5\n        }\n    ],\n    \"total_pages\": 36906,\n    \"total_results\": 738106\n}"
						}
					]
				}
			]
		},
		{
			"name": "Login",
			"item": [
				{
					"name": "1. User REQUEST Authentication Token",
					"request": {
						"method": "GET",
						"header": [],
						"url": {
							"raw": "{{baseUrl}}/authentication/token/new?api_key={{apiKey}}",
							"host": [
								"{{baseUrl}}"
							],
							"path": [
								"authentication",
								"token",
								"new"
							],
							"query": [
								{
									"key": "api_key",
									"value": "{{apiKey}}"
								}
							]
						}
					},
					"response": [
						{
							"name": "1. User Authentication Token",
							"originalRequest": {
								"method": "GET",
								"header": [],
								"url": {
									"raw": "{{baseUrl}}/authentication/token/new?api_key={{apiKey}}",
									"host": [
										"{{baseUrl}}"
									],
									"path": [
										"authentication",
										"token",
										"new"
									],
									"query": [
										{
											"key": "api_key",
											"value": "{{apiKey}}"
										}
									]
								}
							},
							"status": "OK",
							"code": 200,
							"_postman_previewlanguage": "json",
							"header": [
								{
									"key": "Content-Type",
									"value": "application/json;charset=utf-8"
								},
								{
									"key": "Transfer-Encoding",
									"value": "chunked"
								},
								{
									"key": "Connection",
									"value": "keep-alive"
								},
								{
									"key": "Date",
									"value": "Thu, 02 Feb 2023 00:26:51 GMT"
								},
								{
									"key": "Server",
									"value": "openresty"
								},
								{
									"key": "Cache-Control",
									"value": "public, max-age=0"
								},
								{
									"key": "Authentication-Callback",
									"value": "http://www.themoviedb.org/authenticate/e986548053d522e32ea9fcb87cae60373051c24c"
								},
								{
									"key": "ETag",
									"value": "W/\"1c1bacf6f0ea80e8a03212340f020aa1\""
								},
								{
									"key": "Content-Encoding",
									"value": "br"
								},
								{
									"key": "Vary",
									"value": "Accept-Encoding,Accept-Encoding,Accept-Encoding"
								},
								{
									"key": "Vary",
									"value": "Origin"
								},
								{
									"key": "X-Cache",
									"value": "Miss from cloudfront"
								},
								{
									"key": "Via",
									"value": "1.1 d64082f0604a4e84007fec84d28e9f32.cloudfront.net (CloudFront)"
								},
								{
									"key": "X-Amz-Cf-Pop",
									"value": "IAD79-C3"
								},
								{
									"key": "Alt-Svc",
									"value": "h3=\":443\"; ma=86400"
								},
								{
									"key": "X-Amz-Cf-Id",
									"value": "qlLlN8xcxG03f93-Z2szIHSV30Aw2ZiqPonqoRuuzDAc4LlHIreGsg=="
								}
							],
							"cookie": [],
							"body": "{\n    \"success\": true,\n    \"expires_at\": \"2023-02-02 01:26:51 UTC\",\n    \"request_token\": \"e986548053d522e32ea9fcb87cae60373051c24c\"\n}"
						}
					]
				},
				{
					"name": "Approve Login Successful Login",
					"request": {
						"method": "POST",
						"header": [],
						"body": {
							"mode": "raw",
							"raw": "{\r\n  \"request_token\": \"e986548053d522e32ea9fcb87cae60373051c24c\"\r\n}",
							"options": {
								"raw": {
									"language": "json"
								}
							}
						},
						"url": {
							"raw": "{{baseUrl}}/authentication/session/new?api_key={{apiKey}}",
							"host": [
								"{{baseUrl}}"
							],
							"path": [
								"authentication",
								"session",
								"new"
							],
							"query": [
								{
									"key": "api_key",
									"value": "{{apiKey}}"
								}
							]
						}
					},
					"response": [
						{
							"name": "Approve Login",
							"originalRequest": {
								"method": "POST",
								"header": [],
								"body": {
									"mode": "raw",
									"raw": "{\r\n  \"request_token\": \"e986548053d522e32ea9fcb87cae60373051c24c\"\r\n}",
									"options": {
										"raw": {
											"language": "json"
										}
									}
								},
								"url": {
									"raw": "{{baseUrl}}/authentication/session/new?api_key={{apiKey}}",
									"host": [
										"{{baseUrl}}"
									],
									"path": [
										"authentication",
										"session",
										"new"
									],
									"query": [
										{
											"key": "api_key",
											"value": "{{apiKey}}"
										}
									]
								}
							},
							"status": "OK",
							"code": 200,
							"_postman_previewlanguage": "json",
							"header": [
								{
									"key": "Content-Type",
									"value": "application/json;charset=utf-8"
								},
								{
									"key": "Transfer-Encoding",
									"value": "chunked"
								},
								{
									"key": "Connection",
									"value": "keep-alive"
								},
								{
									"key": "Date",
									"value": "Thu, 02 Feb 2023 00:33:58 GMT"
								},
								{
									"key": "Server",
									"value": "openresty"
								},
								{
									"key": "Vary",
									"value": "Accept-Encoding"
								},
								{
									"key": "Vary",
									"value": "Accept-Encoding"
								},
								{
									"key": "Vary",
									"value": "Accept-Encoding"
								},
								{
									"key": "Vary",
									"value": "Origin"
								},
								{
									"key": "Cache-Control",
									"value": "public, max-age=0"
								},
								{
									"key": "ETag",
									"value": "W/\"a2e2237d073d12bc1e668e74a247f519\""
								},
								{
									"key": "Content-Encoding",
									"value": "br"
								},
								{
									"key": "X-Cache",
									"value": "Miss from cloudfront"
								},
								{
									"key": "Via",
									"value": "1.1 fe705b44d5a5a2d7d6e73595ceeca2e2.cloudfront.net (CloudFront)"
								},
								{
									"key": "X-Amz-Cf-Pop",
									"value": "JFK50-P7"
								},
								{
									"key": "Alt-Svc",
									"value": "h3=\":443\"; ma=86400"
								},
								{
									"key": "X-Amz-Cf-Id",
									"value": "Ks1VqlYeY_pNmlm-SRGUwSqDQREZzsjwGHjAx4KLesiYPKAp8nbYBQ=="
								}
							],
							"cookie": [],
							"body": "{\n    \"success\": true,\n    \"session_id\": \"b7f6dbe0d469f0b2687a108e2664873c755a7dec\"\n}"
						}
					]
				},
				{
					"name": "Approve Login Failure Login Copy",
					"request": {
						"method": "POST",
						"header": [],
						"body": {
							"mode": "raw",
							"raw": "{\r\n  \"request_token\": \"7cdf7f85a592da92757a6dc3320f145228c6aca6\"\r\n}",
							"options": {
								"raw": {
									"language": "json"
								}
							}
						},
						"url": {
							"raw": "{{baseUrl}}/authentication/session/new?api_key={{apiKey}}",
							"host": [
								"{{baseUrl}}"
							],
							"path": [
								"authentication",
								"session",
								"new"
							],
							"query": [
								{
									"key": "api_key",
									"value": "{{apiKey}}"
								}
							]
						}
					},
					"response": [
						{
							"name": "Approve Login Failure Login Copy",
							"originalRequest": {
								"method": "POST",
								"header": [],
								"body": {
									"mode": "raw",
									"raw": "{\r\n  \"request_token\": \"7cdf7f85a592da92757a6dc3320f145228c6aca6\"\r\n}",
									"options": {
										"raw": {
											"language": "json"
										}
									}
								},
								"url": {
									"raw": "{{baseUrl}}/authentication/session/new?api_key={{apiKey}}",
									"host": [
										"{{baseUrl}}"
									],
									"path": [
										"authentication",
										"session",
										"new"
									],
									"query": [
										{
											"key": "api_key",
											"value": "{{apiKey}}"
										}
									]
								}
							},
							"status": "Unauthorized",
							"code": 401,
							"_postman_previewlanguage": "json",
							"header": [
								{
									"key": "Content-Type",
									"value": "application/json;charset=utf-8"
								},
								{
									"key": "Content-Length",
									"value": "84"
								},
								{
									"key": "Connection",
									"value": "keep-alive"
								},
								{
									"key": "Date",
									"value": "Thu, 02 Feb 2023 00:35:47 GMT"
								},
								{
									"key": "Server",
									"value": "openresty"
								},
								{
									"key": "Cache-Control",
									"value": "public, max-age=0"
								},
								{
									"key": "Vary",
									"value": "Accept-Encoding"
								},
								{
									"key": "Vary",
									"value": "Origin"
								},
								{
									"key": "X-Cache",
									"value": "Error from cloudfront"
								},
								{
									"key": "Via",
									"value": "1.1 fe705b44d5a5a2d7d6e73595ceeca2e2.cloudfront.net (CloudFront)"
								},
								{
									"key": "X-Amz-Cf-Pop",
									"value": "JFK50-P7"
								},
								{
									"key": "Alt-Svc",
									"value": "h3=\":443\"; ma=86400"
								},
								{
									"key": "X-Amz-Cf-Id",
									"value": "l2iZdLh8qgB67I1T8_lnbWmrgNCEk9k8zoCPjpBhgI7S3GLVJV_lfA=="
								}
							],
							"cookie": [],
							"body": "{\n    \"success\": false,\n    \"failure\": true,\n    \"status_code\": 17,\n    \"status_message\": \"Session denied.\"\n}"
						}
					]
				}
			]
		}
	],
	"event": [
		{
			"listen": "prerequest",
			"script": {
				"type": "text/javascript",
				"exec": [
					""
				]
			}
		},
		{
			"listen": "test",
			"script": {
				"type": "text/javascript",
				"exec": [
					""
				]
			}
		}
	],
	"variable": [
		{
			"key": "baseUrl",
			"value": "https://api.themoviedb.org/3"
		},
		{
			"key": "apiKey",
			"value": "db25e43529535a73ac275e751d225211",
			"type": "string"
		}
	]
}